Traceback (most recent call last):
  File "./train.py", line 28, in <module>
    opt = TrainOptions().parse()   # get training options
  File "/usr/itetnas04/data-scratch-01/dlim_03hs20/data/pytorch-CycleGAN-and-pix2pix/options/base_options.py", line 115, in parse
    opt = self.gather_options()
  File "/usr/itetnas04/data-scratch-01/dlim_03hs20/data/pytorch-CycleGAN-and-pix2pix/options/base_options.py", line 75, in gather_options
    model_option_setter = models.get_option_setter(model_name)
  File "/usr/itetnas04/data-scratch-01/dlim_03hs20/data/pytorch-CycleGAN-and-pix2pix/models/__init__.py", line 50, in get_option_setter
    model_class = find_model_using_name(model_name)
  File "/usr/itetnas04/data-scratch-01/dlim_03hs20/data/pytorch-CycleGAN-and-pix2pix/models/__init__.py", line 33, in find_model_using_name
    modellib = importlib.import_module(model_filename)
  File "/usr/itetnas04/data-scratch-01/dlim_03hs20/data/conda_envs/machineLearning/lib/python3.7/importlib/__init__.py", line 127, in import_module
    return _bootstrap._gcd_import(name[level:], package, level)
  File "<frozen importlib._bootstrap>", line 1006, in _gcd_import
  File "<frozen importlib._bootstrap>", line 983, in _find_and_load
  File "<frozen importlib._bootstrap>", line 967, in _find_and_load_unlocked
  File "<frozen importlib._bootstrap>", line 677, in _load_unlocked
  File "<frozen importlib._bootstrap_external>", line 728, in exec_module
  File "<frozen importlib._bootstrap>", line 219, in _call_with_frames_removed
  File "/usr/itetnas04/data-scratch-01/dlim_03hs20/data/pytorch-CycleGAN-and-pix2pix/models/perceptual_model.py", line 166, in <module>
    class VGGLoss(nn.Module):
NameError: name 'nn' is not defined
Traceback (most recent call last):
  File "./test.py", line 38, in <module>
    opt = TestOptions().parse()  # get test options
  File "/usr/itetnas04/data-scratch-01/dlim_03hs20/data/pytorch-CycleGAN-and-pix2pix/options/base_options.py", line 115, in parse
    opt = self.gather_options()
  File "/usr/itetnas04/data-scratch-01/dlim_03hs20/data/pytorch-CycleGAN-and-pix2pix/options/base_options.py", line 75, in gather_options
    model_option_setter = models.get_option_setter(model_name)
  File "/usr/itetnas04/data-scratch-01/dlim_03hs20/data/pytorch-CycleGAN-and-pix2pix/models/__init__.py", line 50, in get_option_setter
    model_class = find_model_using_name(model_name)
  File "/usr/itetnas04/data-scratch-01/dlim_03hs20/data/pytorch-CycleGAN-and-pix2pix/models/__init__.py", line 33, in find_model_using_name
    modellib = importlib.import_module(model_filename)
  File "/usr/itetnas04/data-scratch-01/dlim_03hs20/data/conda_envs/machineLearning/lib/python3.7/importlib/__init__.py", line 127, in import_module
    return _bootstrap._gcd_import(name[level:], package, level)
  File "<frozen importlib._bootstrap>", line 1006, in _gcd_import
  File "<frozen importlib._bootstrap>", line 983, in _find_and_load
  File "<frozen importlib._bootstrap>", line 967, in _find_and_load_unlocked
  File "<frozen importlib._bootstrap>", line 677, in _load_unlocked
  File "<frozen importlib._bootstrap_external>", line 728, in exec_module
  File "<frozen importlib._bootstrap>", line 219, in _call_with_frames_removed
  File "/usr/itetnas04/data-scratch-01/dlim_03hs20/data/pytorch-CycleGAN-and-pix2pix/models/perceptual_model.py", line 166, in <module>
    class VGGLoss(nn.Module):
NameError: name 'nn' is not defined
Creating feature extractor "inception-v3-compat" with features ['logits_unbiased', '2048']
Extracting features from input_1
Looking for samples non-recursivelty in "./results/facades_label2photo_pretrained/test_latest/images/" with extensions png,jpg,jpeg
Found 150 samples
Processing samples:   0%|          | 0/150 [00:00<?, ?samples/s]Processing samples:  43%|████▎     | 64/150 [00:09<00:13,  6.57samples/s]Processing samples:  85%|████████▌ | 128/150 [00:18<00:03,  6.87samples/s]Processing samples: 192samples [00:20,  8.81samples/s]                                                                          Processing samples
Extracting features from input_2
Looking for samples non-recursivelty in "./datasets/facades/test/" with extensions png,jpg,jpeg
Found 106 samples, some are lossy-compressed - this may affect metrics
Processing samples:   0%|          | 0/106 [00:00<?, ?samples/s]Processing samples:  60%|██████    | 64/106 [00:10<00:06,  6.38samples/s]Processing samples: 128samples [00:15,  7.47samples/s]                                                                         Processing samples
Computing Inception Score
Computing Frechet Inception Distance
Creating feature extractor "inception-v3-compat" with features ['logits_unbiased', '2048']
Traceback (most recent call last):
  File "./myCode/fidelity.py", line 11, in <module>
    trained_metrics = calculate_metrics("./results/perceptual/test_latest/images/", "./datasets/facades/test/", cuda=False, isc=True, fid=True, kid=False, verbose=True)
  File "/usr/itetnas04/data-scratch-01/dlim_03hs20/data/conda_envs/fidelitySupport/lib/python3.8/site-packages/torch_fidelity/metrics.py", line 118, in calculate_metrics
    cacheable_input1_name = get_input_cacheable_name(input_1, get_kwarg('cache_input1_name', kwargs))
  File "/usr/itetnas04/data-scratch-01/dlim_03hs20/data/conda_envs/fidelitySupport/lib/python3.8/site-packages/torch_fidelity/utils.py", line 118, in get_input_cacheable_name
    raise ValueError(f'Unknown format of input string "{input}"')
ValueError: Unknown format of input string "./results/perceptual/test_latest/images/"
